{
	"info": {
		"_postman_id": "b58ca7b8-5a0a-4f5c-8830-81af92e3b910",
		"name": "PostEnt1Nadhia",
		"schema": "https://schema.getpostman.com/json/collection/v2.1.0/collection.json"
	},
	"item": [
		{
			"name": "DEMO API REST Cuentas Nadhia",
			"item": [
				{
					"name": "Obtener cuentas",
					"request": {
						"method": "GET",
						"header": [
							{
								"key": "",
								"type": "text",
								"value": "jose",
								"disabled": true
							}
						],
						"url": {
							"raw": "http://localhost:8080/api/v1/cuentas/",
							"protocol": "http",
							"host": [
								"localhost"
							],
							"port": "8080",
							"path": [
								"api",
								"v1",
								"cuentas",
								""
							]
						}
					},
					"response": []
				},
				{
					"name": "Obtener cuenta 1234567890",
					"request": {
						"method": "GET",
						"header": [],
						"url": {
							"raw": "http://localhost:8080/api/v1/cuentas/1234567890",
							"protocol": "http",
							"host": [
								"localhost"
							],
							"port": "8080",
							"path": [
								"api",
								"v1",
								"cuentas",
								"1234567890"
							]
						}
					},
					"response": []
				},
				{
					"name": "Agregar cuenta",
					"request": {
						"method": "POST",
						"header": [
							{
								"key": "",
								"type": "text",
								"value": "jose",
								"disabled": true
							}
						],
						"body": {
							"mode": "raw",
							"raw": "{\r\n  \"numero\": \"1234567890\",\r\n  \"moneda\": \"PEN\",\r\n  \"saldo\": 1000,\r\n  \"tipo\": \"cuenta ganadora\",\r\n  \"estado\": \"activo\",\r\n  \"oficina\": \"0241\"\r\n} ",
							"options": {
								"raw": {
									"language": "json"
								}
							}
						},
						"url": {
							"raw": "http://localhost:8080/api/v1/cuentas/",
							"protocol": "http",
							"host": [
								"localhost"
							],
							"port": "8080",
							"path": [
								"api",
								"v1",
								"cuentas",
								""
							]
						}
					},
					"response": []
				},
				{
					"name": "Reemplazar cliente",
					"request": {
						"method": "PUT",
						"header": [
							{
								"key": "",
								"type": "text",
								"value": "jose",
								"disabled": true
							}
						],
						"body": {
							"mode": "raw",
							"raw": "{\r\n  \"numero\": \"0987654321\",\r\n  \"moneda\": \"EUR\",\r\n  \"saldo\": 2000,\r\n  \"tipo\": \"cuenta de ahorros\",\r\n  \"estado\": \"activo\",\r\n  \"oficina\": \"0445\"\r\n} ",
							"options": {
								"raw": {
									"language": "json"
								}
							}
						},
						"url": {
							"raw": "http://localhost:8080/api/v1/cuentas/1234567890",
							"protocol": "http",
							"host": [
								"localhost"
							],
							"port": "8080",
							"path": [
								"api",
								"v1",
								"cuentas",
								"1234567890"
							]
						}
					},
					"response": []
				},
				{
					"name": "Reemplazar cliente Copy",
					"request": {
						"method": "PATCH",
						"header": [
							{
								"key": "",
								"type": "text",
								"value": "jose",
								"disabled": true
							}
						],
						"body": {
							"mode": "raw",
							"raw": "{\r\n    \"moneda\": \"USD\"\r\n} ",
							"options": {
								"raw": {
									"language": "json"
								}
							}
						},
						"url": {
							"raw": "http://localhost:8080/api/v1/cuentas/1234567890",
							"protocol": "http",
							"host": [
								"localhost"
							],
							"port": "8080",
							"path": [
								"api",
								"v1",
								"cuentas",
								"1234567890"
							]
						}
					},
					"response": []
				}
			],
			"event": [
				{
					"listen": "prerequest",
					"script": {
						"id": "cb4bc441-9168-4408-a2f8-c1de1c6babba",
						"type": "text/javascript",
						"exec": [
							""
						]
					}
				},
				{
					"listen": "test",
					"script": {
						"id": "94b53b6f-178e-404e-b22d-5aab75f5177f",
						"type": "text/javascript",
						"exec": [
							""
						]
					}
				}
			],
			"protocolProfileBehavior": {}
		}
	],
	"protocolProfileBehavior": {}
}